%YAML 1.1
%TAG !u! tag:unity3d.com,2011:
--- !u!114 &11400000
MonoBehaviour:
  m_ObjectHideFlags: 0
  m_CorrespondingSourceObject: {fileID: 0}
  m_PrefabInstance: {fileID: 0}
  m_PrefabAsset: {fileID: 0}
  m_GameObject: {fileID: 0}
  m_Enabled: 1
  m_EditorHideFlags: 0
  m_Script: {fileID: 11500000, guid: 612e70f49e5124da0a95111a57250300, type: 3}
  m_Name: DistanceFog
  m_EditorClassIdentifier: 
  raymarchQuality: 1
  raymarchMinStep: 0.1
  jittering: 0
  dithering: 0
  renderQueue: 3200
  sortingLayerID: 0
  sortingOrder: 0
  noiseTexture: {fileID: 2800000, guid: f4495fae5db0744d29286a5d443ae57e, type: 3}
  noiseStrength: 1.02
  noiseScale: 2.9
  noiseFinalMultiplier: 1
  useDetailNoise: 0
  detailTexture: {fileID: 11700000, guid: 950add8d241c6479bbab1f10e1035d60, type: 2}
  detailScale: 0.35
  detailStrength: 0
  detailOffset: 0.3
  density: 0.03
  shape: 0
  border: 0.235
  verticalOffset: 0
  distance: 7.13
  distanceFallOff: 0.841
  terrainFit: 0
  terrainFitResolution: 128
  terrainLayerMask:
    serializedVersion: 2
    m_Bits: 4294967293
  terrainFogHeight: 28.56
  terrainFogMinAltitude: 0
  terrainFogMaxAltitude: 150
  albedo: {r: 0.8901961, g: 0.8901961, b: 0.8901961, a: 1}
  brightness: 1
  deepObscurance: 1.42
  specularColor: {r: 1, g: 1, b: 0.8, a: 1}
  specularThreshold: 0.637
  specularIntensity: 0.397
  turbulence: 0
  windDirection: {x: 0, y: 0, z: 0}
  lightDiffusionPower: 30.1
  lightDiffusionIntensity: 0.187
  receiveShadows: 1
  shadowIntensity: 0.802
